<?xml version="1.0" encoding="utf-8"?>
<!-- Generator: Adobe Illustrator 24.2.0, SVG Export Plug-In . SVG Version: 6.00 Build 0)  -->
<svg version="1.1" id="Layer_1" xmlns="http://www.w3.org/2000/svg" xmlns:xlink="http://www.w3.org/1999/xlink" x="0px" y="0px"
	 viewBox="0 0 186 159.9" style="enable-background:new 0 0 186 159.9;" xml:space="preserve">
<style type="text/css">
	.st0{fill:#FFFFFF;}
</style>
<g>
	<path class="st0" d="M135.3,126.3c-9.2-0.1-20.1-23.5-28.5-41.5c0,0,5.4-20.3,16.1-21.7c0.6-0.1,1,0.5,2.5,1.9
		c6.8,6.3,25.1,61.6,39.2,61.4L135.3,126.3z"/>
	<path class="st0" d="M153.2,31.8c-0.7,32.7-2.6,55.1-5.3,70c0,0,12.9,22.9,19.9,23.5c5.9,0.5,13.2-30.5,14.5-93.4h-29.1L153.2,31.8
		L153.2,31.8z"/>
	<path class="st0" d="M90.2,62.1c-13.4,0-22.1,43.6-31.1,69.6c3.8,20.5,16.1,24,16.1,24c16.2-9.2,25.7-94.3,44.4-93.6H90.2z"/>
	<path class="st0" d="M32.8,3.2c0,0,14.1,154,39,153.5H42.3C17.6,155.7,3.7,3.2,3.7,3.2H32.8z"/>
</g>
</svg>
